Presentation Ninja
…
Visualize o banco pelo `Console`, executando a variável `desp_csv` ou clique no objeto `desp_csv`, em `Enviroment`, para abrir o banco em outra aba do `R`

```r
desp_csv
```

```
## # A tibble: 54,097 × 15
##    AN_EXERCICIO NR_PER…¹ IN_PE…² CO_ES…³ CO_PO…⁴ ID_ENTE NO_ENTE SG_ENTE fase_…⁵
##           <dbl>    <dbl> <chr>   <chr>   <chr>     <dbl> <chr>   <chr>   <chr>  
##  1         2019        2 B       M       E       4206603 Guaruj… SC      DESPES…
##  2         2019        1 B       M       E       2411908 São Fr… RN      DESPES…
##  3         2019        4 B       M       E       4211454 Nova I… SC      DESPES…
##  4         2019        1 B       M       E       4210704 Matos … SC      DESPES…
##  5         2019        1 B       M       E       3112109 Caparaó MG      DESPES…
##  6         2019        2 B       M       E       3514205 Dolcin… SP      DESPES…
##  7         2019        4 B       M       E       3520608 Indiana SP      DESPES…
##  8         2019        1 B       M       E       2503407 Cacimb… PB      DESPES…
##  9         2019        1 B       M       E       4202875 Brunóp… SC      DESPES…
## 10         2019        1 B       M       E       3551306 Sebast… SP      DESPES…
## # … with 54,087 more rows, 6 more variables: funcao <chr>, VALUE <dbl>,
## #   QT_HABITANTE <dbl>, ELEMENTLABEL <chr>, DT_STATUS_COLETA <dttm>,
## #   dh_consulta <chr>, and abbreviated variable names ¹​NR_PERIODO,
## #   ²​IN_PERIODICIDADE, ³​CO_ESFERA, ⁴​CO_PODER, ⁵​fase_despesa
```
---
## Importando dados no R
Vamos importar um banco de dados em Excel pelo pacote `readxl`. O objeto `dados.escola_xlsx` receberá o banco `escolas.xlsx`:

```r
dados.escola_xlsx = read_excel("F:\\Curso de R\\Introducao_R\\Curso R\\bd\\escolas.xlsx")
dados.escola_xlsx
```

```
## # A tibble: 62 × 166
##    NU_ANO_CENSO CO_ENTIDADE NO_ENTIDADE      CO_OR…¹ TP_SI…² DT_ANO_LETIVO_INI…³
##           <dbl>       <dbl> <chr>            <lgl>     <dbl> <dttm>             
##  1         2015    12133221 ESC ESTELA PERE… NA            1 2015-03-23 00:00:00
##  2         2015    12132225 ESC QUINTAIS FL… NA            4 NA                 
##  3         2015    12131229 ESC INDIGENA SH… NA            1 2015-04-02 00:00:00
##  4         2015    12130222 ESC INDIGENA PE… NA            1 2015-04-02 00:00:00
##  5         2015    12129224 ESC CRECHE IEDA… NA            1 2015-03-31 00:00:00
##  6         2015    12128236 ESC FAMILIA AGR… NA            1 2015-05-18 00:00:00
##  7         2015    12127221 MAL COSTA E SIL… NA            4 NA                 
##  8         2015    12125229 ESC ESPERANCA    NA            2 NA                 
##  9         2015    12124222 ESC CENTRO RURA… NA            2 NA                 
## 10         2015    12123226 ESC CENTRO RURA… NA            2 NA                 
## # … with 52 more rows, 160 more variables: DT_ANO_LETIVO_TERMINO <dttm>,
## #   CO_REGIAO <dbl>, CO_MESORREGIAO <dbl>, CO_MICRORREGIAO <dbl>, CO_UF <dbl>,
## #   CO_MUNICIPIO <dbl>, CO_DISTRITO <dbl>, TP_DEPENDENCIA <dbl>,
## #   TP_LOCALIZACAO <dbl>, TP_CATEGORIA_ESCOLA_PRIVADA <lgl>,
## #   IN_CONVENIADA_PP <lgl>, TP_CONVENIO_PODER_PUBLICO <lgl>,
## #   IN_MANT_ESCOLA_PRIVADA_EMP <lgl>, IN_MANT_ESCOLA_PRIVADA_ONG <lgl>,
## #   IN_MANT_ESCOLA_PRIVADA_SIND <lgl>, IN_MANT_ESCOLA_PRIVADA_SIST_S <lgl>, …
```
…
---
## Pacote Tidyverse

.pull-left[
Recuperar as despesas dos municípios da Bahia

```r
desp_csv[desp_csv$SG_ENTE == "BA", "VALUE"]
```

```
## # A tibble: 5,132 × 1
##       VALUE
##       <dbl>
##  1  479245.
##  2  834414.
##  3  550915.
##  4  865695.
##  5 1081189.
##  6 1118872.
##  7 1281717.
##  8  579776.
##  9  473314.
## 10  815257.
## # … with 5,122 more rows
```
…
---
## Pacote Tidyverse (dplyer) e pacote rmarkdown

.pull-left[
Visualize o a despesa total por UF :

```
## # A tibble: 26 × 2
##    SG_ENTE         Soma
##    <chr>          <dbl>
##  1 AC        849924641.
##  2 AL       4272172277.
##  3 AM       4457109424.
##  4 AP        747540502.
##  5 BA      21950110329.
##  6 CE      13472020537.
##  7 ES       4538370893.
##  8 GO       8352979611.
##  9 MA       8331320792.
## 10 MG      24225450571.
## # … with 16 more rows
```
…
